module altercode/xpol

go 1.18

require (
	github.com/PullRequestInc/go-gpt3 v1.1.10
	github.com/fatih/color v1.10.0
	github.com/golang-jwt/jwt/v4 v4.4.2
	github.com/kolo/xmlrpc v0.0.0-20201022064351-38db28db192b
	github.com/manifoldco/promptui v0.9.0
	github.com/mitchellh/go-homedir v1.1.0
	github.com/spf13/cobra v1.5.0
	github.com/spf13/viper v1.7.1
	golang.org/x/crypto v0.0.0-20220722155217-630584e8d5aa
	golang.org/x/oauth2 v0.0.0-20220722155238-128564f6959c
	google.golang.org/api v0.90.0
	gopkg.in/yaml.v2 v2.4.0
)

require (
	cloud.google.com/go/compute v1.7.0 // indirect
	github.com/BurntSushi/toml v1.1.0 // indirect
	github.com/chzyer/readline v0.0.0-20180603132655-2972be24d48e // indirect
	github.com/fsnotify/fsnotify v1.4.7 // indirect
	github.com/golang/groupcache v0.0.0-20210331224755-41bb18bfe9da // indirect
	github.com/golang/protobuf v1.5.2 // indirect
	github.com/google/uuid v1.3.0 // indirect
	github.com/googleapis/enterprise-certificate-proxy v0.1.0 // indirect
	github.com/googleapis/gax-go/v2 v2.4.0 // indirect
	github.com/hashicorp/hcl v1.0.0 // indirect
	github.com/inconshreveable/mousetrap v1.0.0 // indirect
	github.com/magiconair/properties v1.8.1 // indirect
	github.com/mattn/go-colorable v0.1.12 // indirect
	github.com/mattn/go-isatty v0.0.14 // indirect
	github.com/mitchellh/mapstructure v1.3.1 // indirect
	github.com/pelletier/go-toml v1.2.0 // indirect
	github.com/spf13/afero v1.1.2 // indirect
	github.com/spf13/cast v1.3.0 // indirect
	github.com/spf13/jwalterweatherman v1.0.0 // indirect
	github.com/spf13/pflag v1.0.5 // indirect
	github.com/stretchr/testify v1.7.1 // indirect
	github.com/subosito/gotenv v1.2.0 // indirect
	go.opencensus.io v0.23.0 // indirect
	golang.org/x/net v0.0.0-20220728211354-c7608f3a8462 // indirect
	golang.org/x/sys v0.0.0-20220728004956-3c1f35247d10 // indirect
	golang.org/x/text v0.3.7 // indirect
	google.golang.org/appengine v1.6.7 // indirect
	google.golang.org/genproto v0.0.0-20220728213248-dd149ef739b9 // indirect
	google.golang.org/grpc v1.48.0 // indirect
	google.golang.org/protobuf v1.28.1 // indirect
	gopkg.in/check.v1 v1.0.0-20190902080502-41f04d3bba15 // indirect
	gopkg.in/ini.v1 v1.51.0 // indirect
	gopkg.in/yaml.v3 v3.0.1 // indirect
)
